{
	"0":"Todos",
	"1":"Amazonas",
	"2":"Antioquia",
	"3":"Arauca",
	"4":"Atlántico",
	"5":"Bolívar",
	"6":"Boyacá",
	"7":"Caldas",
	"8":"Caquetá",
	"9":"Casanare",
	"10":"Cauca",
	"11":"Cesar",
	"12":"Chocó",
	"13":"Córdoba",
	"14":"Cundinamarca",
	"15":"Bogotá D.C.",
	"16":"Guainía",
	"17":"Guaviare",
	"18":"Huila",
	"19":"La Guajira",
	"20":"Magdalena",
	"21":"Meta",
	"22":"Nariño",
	"23":"Norte de Santander",
	"24":"Putumayo",
	"25":"Quindío",
	"26":"Risaralda",
	"27":"San Andrés y Providencia",
	"28":"Santander",
	"29":"Sucre",
	"30":"Tolima",
	"31":"Valle del Cauca",
	"32":"Vaupés",
	"33":"Vichada",
	"34":"Barrancabermeja",
	"35":"Buenaventura",
	"36":"Uraba",
	"37":"Nivel Central"
}